Bayesian Multinomial Logistic Regression
…
# Set a seed for reproducibility.
using Random
Random.seed!(0);

Data Cleaning & Set Up

Now we're going to import our dataset. Twenty rows of the dataset are shown below so you can get a good feel for what kind of data we have.

# Import the "iris" dataset.
data = RDatasets.dataset("datasets", "iris");

# Show twenty random rows.
data[rand(1:size(data, 1), 20), :]

20×5 DataFrame
 Row │ SepalLength  SepalWidth  PetalLength  PetalWidth  Species
     │ Float64      Float64     Float64      Float64     Cat…
─────┼──────────────────────────────────────────────────────────────
   1 │         5.7         2.8          4.1         1.3  versicolor
   2 │         5.1         3.5          1.4         0.3  setosa
   3 │         5.4         3.9          1.3         0.4  setosa
   4 │         7.6         3.0          6.6         2.1  virginica
   5 │         5.0         3.5          1.6         0.6  setosa
   6 │         5.0         3.6          1.4         0.2  setosa
   7 │         5.5         2.4          3.8         1.1  versicolor
   8 │         6.1         2.6          5.6         1.4  virginica
  ⋮  │      ⋮           ⋮            ⋮           ⋮           ⋮
  14 │         5.1         3.3          1.7         0.5  setosa
  15 │         6.7         3.1          4.7         1.5  versicolor
  16 │         6.2         2.2          4.5         1.5  versicolor
  17 │         4.7         3.2          1.3         0.2  setosa
  18 │         6.4         2.9          4.3         1.3  versicolor
  19 │         5.7         3.0          4.2         1.2  versicolor
  20 │         4.3         3.0          1.1         0.1  setosa
                                                      5 rows omitted

In this data set, the outcome Species is currently coded as a string. We convert it to a numerical value by using indices 1, 2, and 3 to indicate species setosa, versicolor, and virginica, respectively.

# Recode the `Species` column.
species = ["setosa", "versicolor", "virginica"]
data[!, :Species_index] = indexin(data[!, :Species], species)

# Show twenty random rows of the new species columns
data[rand(1:size(data, 1), 20), [:Species, :Species_index]]

20×2 DataFrame
 Row │ Species     Species_index
     │ Cat…        Union…
─────┼───────────────────────────
   1 │ virginica   3
   2 │ versicolor  2
   3 │ virginica   3
   4 │ setosa      1
   5 │ setosa      1
   6 │ versicolor  2
   7 │ setosa      1
   8 │ setosa      1
  ⋮  │     ⋮             ⋮
  14 │ virginica   3
  15 │ virginica   3
  16 │ versicolor  2
  17 │ setosa      1
  18 │ versicolor  2
  19 │ setosa      1
  20 │ setosa      1
                   5 rows omitted
…
